…
## Geographic API


```r
geo_search(country_code = "US")
#> $copyright
#> [1] "Copyright (c) 2015 The New York Times Company.  All Rights Reserved."
#> 
#> $meta
#>   status num_results
#> 1     OK         100
#> 
#> $data
#> # A tibble: 100 x 27
#>    concept_id concept_name geocode_id geoname_id name  latitude longitude
#>    <chr>      <chr>             <int>      <int> <chr>    <dbl>     <dbl>
#>  1 22456      Abilene (Te…       4500    4669635 Abil…     32.4     -99.7
#>  2 22460      Abingdon (V…       7752    4743815 Abin…     36.7     -82.0
#>  3 22480      Acadia Nati…       4504    4956449 Acad…     44.4     -68.3
#>  4 22508      Adirondack …       1488    5106772 Adir…     44.0     -74.5
#>  5 22548      Alabama             364    4829764 Alab…     32.8     -86.8
#>  6 22556      Alaska              292    5879092 Alas…     64.0    -150. 
#>  7 22564      Albany (NY)         464    5106834 Alba…     42.7     -73.8
#>  8 22572      Albuquerque…       1596    5454711 Albu…     35.1    -107. 
#>  9 22576      Alcatraz (S…       7772    5322901 Alca…     37.8    -122. 
#> 10 22580      Alexandria …       4008    4744091 Alex…     38.8     -77.0
#> # … with 90 more rows, and 20 more variables: elevation <int>,
#> #   population <int>, country_code <chr>, country_name <chr>,
#> #   admin_code1 <chr>, admin_code2 <chr>, admin_code3 <lgl>,
#> #   admin_code4 <lgl>, admin_name1 <chr>, admin_name2 <chr>,
#> #   admin_name3 <lgl>, admin_name4 <lgl>, feature_class <chr>,
#> #   feature_code <chr>, feature_code_name <chr>, time_zone_id <chr>,
#> #   dst_offset <dbl>, gmt_offset <dbl>, geocodes_created <chr>,
#> #   geocodes_updated <chr>
```
…
