…
Here, we search for results for locations in the US


```r
geo_search(country_code = 'US')
#> $copyright
#> [1] "Copyright (c) 2015 The New York Times Company.  All Rights Reserved."
#> 
#> $meta
#>   status num_results
#> 1     OK         100
#> 
#> $data
#> # A tibble: 100 x 27
#>    concept_id              concept_name geocode_id geoname_id
#>  *      <chr>                     <chr>      <int>      <int>
#>  1      22456             Abilene (Tex)       4500    4669635
#>  2      22460             Abingdon (Va)       7752    4743815
#>  3      22480 Acadia National Park (Me)       4504    4956449
#>  4      22508 Adirondack Mountains (NY)       1488    5106772
#>  5      22548                   Alabama        364    4829764
#>  6      22556                    Alaska        292    5879092
#>  7      22564               Albany (NY)        464    5106834
#>  8      22572          Albuquerque (NM)       1596    5454711
#>  9      22576  Alcatraz (San Francisco)       7772    5322901
#> 10      22580           Alexandria (Va)       4008    4744091
#> # ... with 90 more rows, and 23 more variables: name <chr>,
#> #   latitude <dbl>, longitude <dbl>, elevation <int>, population <int>,
#> #   country_code <chr>, country_name <chr>, admin_code1 <chr>,
#> #   admin_code2 <chr>, admin_code3 <lgl>, admin_code4 <lgl>,
#> #   admin_name1 <chr>, admin_name2 <chr>, admin_name3 <lgl>,
#> #   admin_name4 <lgl>, feature_class <chr>, feature_code <chr>,
#> #   feature_code_name <chr>, time_zone_id <chr>, dst_offset <dbl>,
#> #   gmt_offset <dbl>, geocodes_created <chr>, geocodes_updated <chr>
```
