…
Here, we search for _bailout_ between two dates, Oct 1 2008 and Dec 1 2008


```r
res <- as_search(q="bailout", begin_date = "20081001", end_date = '20081201')
res$copyright
#> [1] "Copyright (c) 2015 The New York Times Company.  All Rights Reserved."
res$meta
#> # A tibble: 1 x 3
#>    hits  time offset
#>   <int> <int>  <int>
#> 1  1209     6      0
res$data
#> # A tibble: 38 x 41
#>                                                               web_url
#>                                                                 <chr>
#>  1   https://www.nytimes.com/2008/10/05/magazine/05wwln-safire-t.html
#>  2   https://www.nytimes.com/2008/10/05/magazine/05wwln-safire-t.html
#>  3   https://www.nytimes.com/2008/10/05/magazine/05wwln-safire-t.html
#>  4   https://www.nytimes.com/2008/10/05/magazine/05wwln-safire-t.html
#>  5   https://krugman.blogs.nytimes.com/2008/10/01/bailout-narratives/
#>  6       https://economix.blogs.nytimes.com/2008/10/28/bailout-tally/
#>  7 https://www.nytimes.com/2008/11/19/business/economy/19bailout.html
#>  8 https://www.nytimes.com/2008/11/19/business/economy/19bailout.html
#>  9 https://www.nytimes.com/2008/11/19/business/economy/19bailout.html
#> 10 https://www.nytimes.com/2008/11/19/business/economy/19bailout.html
#> # ... with 28 more rows, and 40 more variables: snippet <chr>,
#> #   lead_paragraph <chr>, abstract <chr>, print_page <chr>, source <chr>,
#> #   pub_date <chr>, document_type <chr>, news_desk <chr>,
#> #   section_name <chr>, subsection_name <chr>, type_of_material <chr>,
#> #   `_id` <chr>, word_count <chr>, slideshow_credits <lgl>,
#> #   headline.main <chr>, headline.content_kicker <chr>,
#> #   headline.kicker <chr>, headline.print_headline <chr>,
#> #   byline.original <chr>, multimedia_width <chr>, multimedia_url <chr>,
#> #   multimedia_height <chr>, multimedia_subtype <chr>,
…
Another e.g., Search for keyword _money_, within the _Sports_ and _Foreign_ news desks


```r
res <- as_search(q = "money", fq = 'news_desk:("Sports" "Foreign")')
res$data
#> # A tibble: 92 x 44
#>                                                                        web_url
#>                                                                          <chr>
#>  1 https://www.nytimes.com/2017/04/04/world/americas/argentina-cristina-fernan
#>  2 https://www.nytimes.com/2017/04/04/world/americas/argentina-cristina-fernan
#>  3 https://www.nytimes.com/2017/04/04/world/americas/argentina-cristina-fernan
#>  4 https://www.nytimes.com/2017/04/04/world/americas/argentina-cristina-fernan
#>  5 https://www.nytimes.com/2017/04/04/world/americas/argentina-cristina-fernan
#>  6 https://www.nytimes.com/2017/04/04/world/americas/argentina-cristina-fernan
#>  7 https://www.nytimes.com/2017/04/04/world/americas/argentina-cristina-fernan
#>  8 https://www.nytimes.com/2017/04/04/world/americas/argentina-cristina-fernan
#>  9 https://www.nytimes.com/2017/04/04/world/americas/argentina-cristina-fernan
#> 10 https://www.nytimes.com/2017/04/04/world/americas/argentina-cristina-fernan
#> # ... with 82 more rows, and 43 more variables: snippet <chr>,
#> #   lead_paragraph <chr>, abstract <chr>, print_page <chr>, source <chr>,
#> #   pub_date <chr>, document_type <chr>, news_desk <chr>,
#> #   section_name <chr>, subsection_name <chr>, type_of_material <chr>,
#> #   `_id` <chr>, word_count <int>, slideshow_credits <lgl>,
#> #   headline.main <chr>, headline.print_headline <chr>,
#> #   headline.kicker <chr>, byline.original <chr>, multimedia_width <chr>,
#> #   multimedia_url <chr>, multimedia_rank <chr>, multimedia_height <chr>,
#> #   multimedia_subtype <chr>, multimedia_type <chr>,
…
Here, we search for results for locations in the US


```r
geo_search(country_code = 'US')
#> $copyright
#> [1] "Copyright (c) 2015 The New York Times Company.  All Rights Reserved."
#> 
#> $meta
#>   status num_results
#> 1     OK         100
#> 
#> $data
#> # A tibble: 100 x 27
#>    concept_id              concept_name geocode_id geoname_id
#>  *      <chr>                     <chr>      <int>      <int>
#>  1      22456             Abilene (Tex)       4500    4669635
#>  2      22460             Abingdon (Va)       7752    4743815
#>  3      22480 Acadia National Park (Me)       4504    4956449
#>  4      22508 Adirondack Mountains (NY)       1488    5106772
#>  5      22548                   Alabama        364    4829764
#>  6      22556                    Alaska        292    5879092
#>  7      22564               Albany (NY)        464    5106834
#>  8      22572          Albuquerque (NM)       1596    5454711
#>  9      22576  Alcatraz (San Francisco)       7772    5322901
#> 10      22580           Alexandria (Va)       4008    4744091
#> # ... with 90 more rows, and 23 more variables: name <chr>,
#> #   latitude <dbl>, longitude <dbl>, elevation <int>, population <int>,
#> #   country_code <chr>, country_name <chr>, admin_code1 <chr>,
#> #   admin_code2 <chr>, admin_code3 <lgl>, admin_code4 <lgl>,
#> #   admin_name1 <chr>, admin_name2 <chr>, admin_name3 <lgl>,
#> #   admin_name4 <lgl>, feature_class <chr>, feature_code <chr>,
#> #   feature_code_name <chr>, time_zone_id <chr>, dst_offset <dbl>,
#> #   gmt_offset <dbl>, geocodes_created <chr>, geocodes_updated <chr>
```
